{
    "DNDConfig": null,
    "_height_": {
        "type": "string",
        "value": "60dp"
    },
    "_left_": {
        "type": "string",
        "value": "0dp"
    },
    "_margin_": [
        0,
        0,
        0,
        0
    ],
    "_orientation_": 6,
    "_padding_": [
        0,
        0,
        0,
        0
    ],
    "_percent_": true,
    "_skin_": "s097787234004301aa569d377d11435c",
    "_top_": {
        "type": "string",
        "value": "746dp"
    },
    "_width_": {
        "type": "string",
        "value": "100%"
    },
    "allboxes": [],
    "android": {
        "height": {
            "type": "string",
            "value": "45dp"
        }
    },
    "canUpdateUI": true,
    "children": [
        "ContainerTripleLeft",
        "ContainerTripleMiddle",
        "ContainerTripleRight"
    ],
    "clipbounds": true,
    "containerweight": 100,
    "enablescrolling": true,
    "id": "SquaredButtonTriple",
    "info": null,
    "isvisible": true,
    "kuid": "c8db20645a67434cade9fafea01b403c",
    "layouttype": 2,
    "masterType": 1,
    "name": "kony.ui.FlexContainer",
    "parent": "frmLogin",
    "pf": "frmLogin",
    "snapgridsize": 10,
    "snaptogrid": true,
    "wType": "FlexContainer",
    "widgetalignment": 1,
    "zindex": 1
}