{
    "AS_Button_e5a1f3c2443c47baa2099e40a70c3f0a": {
        "id": "AS_Button_e5a1f3c2443c47baa2099e40a70c3f0a",
        "type": "ACTION_SEQUENCE",
        "params": [{
            "datatype": "collection",
            "name": "eventobject"
        }],
        "contextObj": {
            "name": "frmLogin",
            "type": "forms",
            "platform": "",
            "KUID": "b4e747630c0a4d31b4edb499a5908cf9"
        },
        "language": "js",
        "actions": [{
            "id": "INVOKE_FUNCTION__e7361695eaac4a229d7457239317fcbd",
            "type": "INVOKE_FUNCTION",
            "sequenceKUID": "showWebContent",
            "display": "showWebContent",
            "inputparams": [{
                "name": "eventObject",
                "value": " eventobject"
            }],
            "parentId": null,
            "callbackType": null,
            "disabled": null,
            "source": "controller"
        }]
    }
}